{
  "$type": "Comindware.Platform.Contracts.UserCommandConfigurationModel, Comindware.Platform.Contracts",
  "GlobalAlias": {
    "$type": "Comindware.Platform.Contracts.GlobalAlias, Comindware.Platform.Contracts",
    "Type": "UserCommand",
    "Owner": "Podgotovkazayavleniyanapriyom",
    "Alias": "completeTask"
  },
  "Name": "Завершить задачу",
  "IsSystem": false,
  "IsDisabled": false,
  "IsPrepare": false,
  "SkipValidation": false,
  "Context": "Task",
  "Multiplicity": "OneByOne",
  "Kind": "CompleteTask",
  "ResultType": "Navigate",
  "ConditionRule": "EQUALS($cmw.taskStatus, ID(\"cmw.taskStatus.inProgress\"))",
  "RelatedEntityGlobalAlias": {
    "$type": "Comindware.Platform.Contracts.GlobalAlias, Comindware.Platform.Contracts",
    "Type": "Undefined"
  },
  "LockStateChangeType": "Undefined",
  "LockStateVisibilityType": "Undefined",
  "IsConfirmationActive": false,
  "NavigationTarget": "TaskDataset"
}