{
  "$type": "Comindware.Platform.Contracts.TemplateInfoModel, Comindware.Platform.Contracts",
  "Name": "Перемещение сотрудника",
  "Description": "Перемещения сотрудников",
  "GlobalAlias": {
    "$type": "Comindware.Platform.Contracts.GlobalAlias, Comindware.Platform.Contracts",
    "Type": "ProcessTemplate",
    "Alias": "Peremescheniesotrudnika"
  },
  "IsDisabled": true,
  "RelatedTemplate": {
    "$type": "System.Nullable`1[[Comindware.Platform.Contracts.GlobalAlias, Comindware.Platform.Contracts]], mscorlib",
    "Type": "RecordTemplate",
    "Alias": "Peremescheniyasotrudnikov"
  },
  "IsReferenceData": false,
  "IsTransferable": false
}