{
  "$type": "Comindware.Platform.Contracts.ToolbarModel, Comindware.Platform.Contracts",
  "GlobalAlias": {
    "$type": "Comindware.Platform.Contracts.GlobalAlias, Comindware.Platform.Contracts",
    "Type": "Toolbar",
    "Owner": "Zayavleniyanaotpusk",
    "Alias": "defaultFormToolbar"
  },
  "Name": "Панель инструментов для формы",
  "IsDefaultForLists": false,
  "IsDefaultForForms": true,
  "IsDefaultForProcess": false,
  "IsDefaultForProcessDesigner": false,
  "IsDefaultForTaskLists": false,
  "Items": {
    "$type": "System.Collections.Generic.List`1[[Comindware.Platform.Contracts.ToolbarItemModel, Comindware.Platform.Contracts]], mscorlib",
    "$values": [
      {
        "$type": "Comindware.Platform.Contracts.ToolbarItemModel, Comindware.Platform.Contracts",
        "Action": {
          "$type": "System.Nullable`1[[Comindware.Platform.Contracts.GlobalAlias, Comindware.Platform.Contracts]], mscorlib",
          "Type": "UserCommand",
          "Owner": "Zayavleniyanaotpusk",
          "Alias": "edit"
        },
        "Name": "Сохранить",
        "Order": 0,
        "Type": "Action",
        "IconType": "Undefined",
        "Severity": "None"
      },
      {
        "$type": "Comindware.Platform.Contracts.ToolbarItemModel, Comindware.Platform.Contracts",
        "Action": {
          "$type": "System.Nullable`1[[Comindware.Platform.Contracts.GlobalAlias, Comindware.Platform.Contracts]], mscorlib",
          "Type": "UserCommand",
          "Owner": "Zayavleniyanaotpusk",
          "Alias": "Otpravitnasoglasovanie"
        },
        "Name": "Отправить на согласование",
        "Description": "Отправить на согласование",
        "Order": 1,
        "Type": "Action",
        "IconType": "Undefined",
        "IconClass": "envelope",
        "Severity": "Fatal"
      }
    ]
  }
}