{
  "$type": "Comindware.Platform.Contracts.AttributeModel, Comindware.Platform.Contracts",
  "GlobalAlias": {
    "$type": "Comindware.Platform.Contracts.GlobalAlias, Comindware.Platform.Contracts",
    "Type": "Attribute",
    "Owner": "Grafikiotpuskovpopodrazdeleniyu",
    "Alias": "Otpuskasotrudnikov"
  },
  "Type": "Instance",
  "Format": "Undefined",
  "Name": "Отпуска сотрудников",
  "IsSystem": false,
  "IsDisabled": false,
  "IsUnique": false,
  "IsIndexed": false,
  "IsTracked": false,
  "IsMultiValue": true,
  "IsTitle": false,
  "IsMandatory": false,
  "IsOwnership": false,
  "IsCalculated": false,
  "InstanceGlobalAlias": {
    "$type": "Comindware.Platform.Contracts.GlobalAlias, Comindware.Platform.Contracts",
    "Type": "Attribute",
    "Owner": "Zayavleniyanaotpusk",
    "Alias": "Grafikotpuskovpopodrazdeleniyu"
  },
  "ImageColorType": "Original",
  "ImagePreserveAspectRatio": false
}