{
  "$type": "Comindware.Platform.Contracts.EndEventActivityModel, Comindware.Platform.Contracts",
  "GlobalAlias": {
    "$type": "Comindware.Platform.Contracts.GlobalAlias, Comindware.Platform.Contracts",
    "Type": "Activity",
    "Owner": "Rabotasvakansiey",
    "Alias": "noneEndEvent1"
  },
  "Kind": "None",
  "IsInterrupting": false,
  "BehaviourState": "Undefined",
  "Title": "Вакансия закрыта",
  "IsTitleSet": false,
  "Position": {
    "$type": "Comindware.Platform.Contracts.VectorModel, Comindware.Platform.Contracts",
    "X": 1720.0,
    "Y": 520.0
  },
  "Size": {
    "$type": "Comindware.Platform.Contracts.DimensionsModel, Comindware.Platform.Contracts",
    "Width": 40.0,
    "Height": 40.0
  },
  "Owner": {
    "$type": "Comindware.Platform.Contracts.GlobalAlias, Comindware.Platform.Contracts",
    "Type": "Activity",
    "Owner": "Rabotasvakansiey",
    "Alias": "lane3"
  },
  "OwnerEmbeddedProcessActivityAlias": {
    "$type": "Comindware.Platform.Contracts.GlobalAlias, Comindware.Platform.Contracts",
    "Type": "Undefined"
  },
  "MountedOnAlias": {
    "$type": "Comindware.Platform.Contracts.GlobalAlias, Comindware.Platform.Contracts",
    "Type": "Undefined"
  },
  "Type": "EndEvent",
  "OnEnterRules": {
    "$type": "Comindware.Platform.Contracts.RuleModel[], Comindware.Platform.Contracts",
    "$values": [
      {
        "$type": "Comindware.Platform.Contracts.ModificationRuleModel, Comindware.Platform.Contracts",
        "Action": {
          "$type": "Comindware.Platform.Contracts.ModificationActionModel, Comindware.Platform.Contracts",
          "PropertyPath": {
            "$type": "Comindware.Platform.Contracts.GlobalAlias[], Comindware.Platform.Contracts",
            "$values": [
              {
                "$type": "Comindware.Platform.Contracts.GlobalAlias, Comindware.Platform.Contracts",
                "Type": "Attribute",
                "Owner": "Vakansii",
                "Alias": "Fakticheskayadatazakrytiyavakansii"
              }
            ]
          },
          "PropertyAction": "Replace"
        },
        "Name": "Изменить значение",
        "Type": "Modification",
        "Definition": {
          "$type": "Comindware.Platform.Contracts.ExpressionRuleDefinitionModel, Comindware.Platform.Contracts",
          "Expression": "NOW()",
          "Type": "Expression"
        }
      },
      {
        "$type": "Comindware.Platform.Contracts.ModificationRuleModel, Comindware.Platform.Contracts",
        "Action": {
          "$type": "Comindware.Platform.Contracts.ModificationActionModel, Comindware.Platform.Contracts",
          "PropertyPath": {
            "$type": "Comindware.Platform.Contracts.GlobalAlias[], Comindware.Platform.Contracts",
            "$values": [
              {
                "$type": "Comindware.Platform.Contracts.GlobalAlias, Comindware.Platform.Contracts",
                "Type": "Attribute",
                "Owner": "Vakansii",
                "Alias": "Status"
              }
            ]
          },
          "PropertyAction": "Replace"
        },
        "Name": "Изменить значение",
        "Type": "Modification",
        "Definition": {
          "$type": "Comindware.Platform.Contracts.ValuesRuleDefinitionModel, Comindware.Platform.Contracts",
          "Values": {
            "$type": "System.Object[], mscorlib",
            "$values": [
              "17"
            ]
          },
          "Type": "Values"
        }
      }
    ]
  }
}