{
  "$type": "Comindware.Platform.Contracts.UserCommandConfigurationModel, Comindware.Platform.Contracts",
  "GlobalAlias": {
    "$type": "Comindware.Platform.Contracts.GlobalAlias, Comindware.Platform.Contracts",
    "Type": "UserCommand",
    "Owner": "FLS",
    "Alias": "Udalit"
  },
  "Name": "Удалить",
  "IsSystem": false,
  "IsDisabled": false,
  "IsPrepare": false,
  "SkipValidation": false,
  "Context": "Record",
  "Multiplicity": "OneByOne",
  "Kind": "Delete",
  "ResultType": "DataChange",
  "ConfirmationModelConfiguration": {
    "$type": "Comindware.Platform.Contracts.UserCommandConfirmationModel, Comindware.Platform.Contracts",
    "Form": {
      "$type": "Comindware.Platform.Contracts.GlobalAlias, Comindware.Platform.Contracts",
      "Type": "Form",
      "Owner": "FLS",
      "Alias": "Udalit"
    },
    "Template": {
      "$type": "Comindware.Platform.Contracts.GlobalAlias, Comindware.Platform.Contracts",
      "Type": "MessageTemplate",
      "Alias": "Udalita894"
    }
  },
  "ConditionRule": "true",
  "RelatedEntityGlobalAlias": {
    "$type": "Comindware.Platform.Contracts.GlobalAlias, Comindware.Platform.Contracts",
    "Type": "Undefined"
  },
  "LockStateChangeType": "Undefined",
  "LockStateVisibilityType": "Undefined",
  "IsConfirmationActive": true,
  "NavigationTarget": "Undefined"
}