{
  "$type": "Comindware.Platform.Contracts.DatasetModel, Comindware.Platform.Contracts",
  "GlobalAlias": {
    "$type": "Comindware.Platform.Contracts.GlobalAlias, Comindware.Platform.Contracts",
    "Type": "Dataset",
    "Owner": "Grafikiotpuskovpopodrazdeleniyu",
    "Alias": "defaultList"
  },
  "IsLazyLoading": false,
  "Name": "Все графики отпусков по подразделению",
  "Columns": {
    "$type": "System.Collections.Generic.List`1[[Comindware.Platform.Contracts.ColumnConfigurationModel, Comindware.Platform.Contracts]], mscorlib",
    "$values": [
      {
        "$type": "Comindware.Platform.Contracts.ColumnConfigurationModel, Comindware.Platform.Contracts",
        "PropertyPath": {
          "$type": "Comindware.Platform.Contracts.GlobalAlias[], Comindware.Platform.Contracts",
          "$values": [
            {
              "$type": "Comindware.Platform.Contracts.GlobalAlias, Comindware.Platform.Contracts",
              "Type": "Attribute",
              "Owner": "Grafikiotpuskovpopodrazdeleniyu",
              "Alias": "Obschiygrafikotpuskov"
            }
          ]
        },
        "Name": "Общий график отпусков",
        "Layout": {
          "$type": "Comindware.Platform.Contracts.ColumnLayoutModel, Comindware.Platform.Contracts",
          "Flex": 1.0,
          "Width": 0.0
        },
        "IsHidden": false
      },
      {
        "$type": "Comindware.Platform.Contracts.ColumnConfigurationModel, Comindware.Platform.Contracts",
        "PropertyPath": {
          "$type": "Comindware.Platform.Contracts.GlobalAlias[], Comindware.Platform.Contracts",
          "$values": [
            {
              "$type": "Comindware.Platform.Contracts.GlobalAlias, Comindware.Platform.Contracts",
              "Type": "Attribute",
              "Owner": "Grafikiotpuskovpopodrazdeleniyu",
              "Alias": "Podrazdelenie"
            }
          ]
        },
        "Name": "Подразделение",
        "Layout": {
          "$type": "Comindware.Platform.Contracts.ColumnLayoutModel, Comindware.Platform.Contracts",
          "Flex": 1.0,
          "Width": 0.0
        },
        "IsHidden": false
      }
    ]
  },
  "Paging": {
    "$type": "Comindware.Platform.Contracts.PagingConfigurationModel, Comindware.Platform.Contracts",
    "Page": 0,
    "Size": 25
  },
  "Sorting": {
    "$type": "System.Collections.Generic.List`1[[Comindware.Platform.Contracts.SortingConfigurationModel, Comindware.Platform.Contracts]], mscorlib",
    "$values": []
  },
  "ViewType": "General"
}